{
  "main.css": "static/css/main.4ae89d35.css",
  "main.css.map": "static/css/main.4ae89d35.css.map",
  "main.js": "static/js/main.7d04ce8f.js",
  "main.js.map": "static/js/main.7d04ce8f.js.map",
  "static/media/fontawesome-webfont.eot": "static/media/fontawesome-webfont.674f50d2.eot",
  "static/media/fontawesome-webfont.svg?v=4.7.0": "static/media/fontawesome-webfont.912ec66d.svg",
  "static/media/fontawesome-webfont.ttf?v=4.7.0": "static/media/fontawesome-webfont.b06871f2.ttf",
  "static/media/fontawesome-webfont.woff2?v=4.7.0": "static/media/fontawesome-webfont.af7ae505.woff2",
  "static/media/fontawesome-webfont.woff?v=4.7.0": "static/media/fontawesome-webfont.fee66e71.woff",
  "static/media/glyphicons-halflings-regular.eot": "static/media/glyphicons-halflings-regular.f4769f9b.eot",
  "static/media/glyphicons-halflings-regular.svg": "static/media/glyphicons-halflings-regular.89889688.svg",
  "static/media/glyphicons-halflings-regular.ttf": "static/media/glyphicons-halflings-regular.e18bbf61.ttf",
  "static/media/glyphicons-halflings-regular.woff": "static/media/glyphicons-halflings-regular.fa277232.woff",
  "static/media/glyphicons-halflings-regular.woff2": "static/media/glyphicons-halflings-regular.448c34a5.woff2",
  "static/media/groblje.jpg": "static/media/groblje.0df3aa08.jpg",
  "static/media/licnost_default.jpg": "static/media/licnost_default.19078b13.jpg",
  "static/media/muzej.jpg": "static/media/muzej.28ca687f.jpg",
  "static/media/paw.png": "static/media/paw.4b40fad4.png",
  "static/media/pets-banner.jpg": "static/media/pets-banner.99851e0c.jpg",
  "static/media/uvodna.jpg": "static/media/uvodna.f60448f6.jpg",
  "static/media/zagreb-mirogoj.jpg": "static/media/zagreb-mirogoj.4feb5fbf.jpg"
}